{
  "AWSTemplateFormatVersion": "2010-09-09",
  "Description": "CF SME Practical - inter vpc ipsec tunnel - lokerd@amazon.com",
  "Mappings": {
    "AWSInstanceType2Arch": {
      "c1.medium": { "Arch": "PV64" },
      "c1.xlarge": { "Arch": "PV64" },
      "c3.2xlarge": { "Arch": "PV64" },
      "c3.4xlarge": { "Arch": "PV64" },
      "c3.8xlarge": { "Arch": "PV64" },
      "c3.large": { "Arch": "PV64" },
      "c3.xlarge": { "Arch": "PV64" },
      "cc2.8xlarge": { "Arch": "HVM64" },
      "cg1.4xlarge": { "Arch": "HVMGPU" },
      "cr1.8xlarge": { "Arch": "HVM64" },
      "g2.2xlarge": { "Arch": "HVMG2" },
      "hi1.4xlarge": { "Arch": "PV64" },
      "hs1.8xlarge": { "Arch": "PV64" },
      "i2.2xlarge": { "Arch": "HVM64" },
      "i2.4xlarge": { "Arch": "HVM64" },
      "i2.8xlarge": { "Arch": "HVM64" },
      "i2.xlarge": { "Arch": "HVM64" },
      "m1.large": { "Arch": "PV64" },
      "m1.medium": { "Arch": "PV64" },
      "m1.small": { "Arch": "PV64" },
      "m1.xlarge": { "Arch": "PV64" },
      "m2.2xlarge": { "Arch": "PV64" },
      "m2.4xlarge": { "Arch": "PV64" },
      "m2.xlarge": { "Arch": "PV64" },
      "m3.2xlarge": { "Arch": "PV64" },
      "m3.large": { "Arch": "PV64" },
      "m3.medium": { "Arch": "PV64" },
      "m3.xlarge": { "Arch": "PV64" },
      "r3.2xlarge": { "Arch": "HVM64" },
      "r3.4xlarge": { "Arch": "HVM64" },
      "r3.8xlarge": { "Arch": "HVM64" },
      "r3.large": { "Arch": "HVM64" },
      "r3.xlarge": { "Arch": "HVM64" },
      "t1.micro": { "Arch": "PV64" },
      "t2.medium": { "Arch": "HVM64" },
      "t2.micro": { "Arch": "HVM64" },
      "t2.small": { "Arch": "HVM64" }
    },
    "AWSRegionArch2AMI": {
      "ap-northeast-1": {
        "HVM64": "ami-29dc9228",
        "HVMG2": "ami-4d3b734c",
        "HVMGPU": "NOT_SUPPORTED",
        "PV64": "ami-25dd9324"
      },
      "ap-southeast-1": {
        "HVM64": "ami-a6b6eaf4",
        "HVMG2": "ami-7a1a4528",
        "HVMGPU": "NOT_SUPPORTED",
        "PV64": "ami-56b7eb04"
      },
      "ap-southeast-2": {
        "HVM64": "ami-d9fe9be3",
        "HVMG2": "ami-010c683b",
        "HVMGPU": "NOT_SUPPORTED",
        "PV64": "ami-6bf99c51"
      },
      "cn-north-1": {
        "HVM64": "ami-ccb82af5",
        "HVMG2": "NOT_SUPPORTED",
        "HVMGPU": "NOT_SUPPORTED",
        "PV64": "ami-cab82af3"
      },
      "eu-west-1": { "HVM64": "ami-892fe1fe", "HVMG2": "ami-1138f166", "HVMGPU": "ami-972fe1e0", "PV64": "ami-672ce210" },
      "sa-east-1": {
        "HVM64": "ami-c9e649d4",
        "HVMG2": "NOT_SUPPORTED",
        "HVMGPU": "NOT_SUPPORTED",
        "PV64": "ami-c7e649da"
      },
      "us-east-1": { "HVM64": "ami-76817c1e", "HVMG2": "ami-9c13ecf4", "HVMGPU": "ami-c6867bae", "PV64": "ami-7c807d14" },
      "us-gov-west-1": {
        "HVM64": "ami-a54a2d86",
        "HVMG2": "NOT_SUPPORTED",
        "HVMGPU": "NOT_SUPPORTED",
        "PV64": "ami-ab4a2d88"
      },
      "us-west-1": {
        "HVM64": "ami-f0d3d4b5",
        "HVMG2": "ami-84494fc1",
        "HVMGPU": "NOT_SUPPORTED",
        "PV64": "ami-a8d3d4ed"
      },
      "us-west-2": {
        "HVM64": "ami-d13845e1",
        "HVMG2": "ami-6d8cf15d",
        "HVMGPU": "NOT_SUPPORTED",
        "PV64": "ami-1b3b462b"
      }
    }
  },
  "Outputs": {
    "SWAN0": {
      "Description": "openswan instance in VPC0",
      "Value": {
        "Fn::Join": [
          "",
          [
            { "Ref": "SWAN0Instance" },
            " ( Public: ",
            { "Ref": "SWAN0EIP" },
            ", Private:",
            { "Fn::GetAtt": ["SWAN0Instance", "PrivateIp"] },
            " )"
          ]
        ]
      }
    },
    "SWAN1": {
      "Description": "openswan instance in VPC1",
      "Value": {
        "Fn::Join": [
          "",
          [
            { "Ref": "SWAN1Instance" },
            " ( Public: ",
            { "Ref": "SWAN1EIP" },
            ", Private:",
            { "Fn::GetAtt": ["SWAN1Instance", "PrivateIp"] },
            " )"
          ]
        ]
      }
    },
    "TEST0": {
      "Description": "test instance in VPC0",
      "Value": {
        "Fn::Join": [
          "",
          [
            { "Ref": "TEST0Instance" },
            " ( Public: ",
            { "Fn::GetAtt": ["TEST0Instance", "PublicIp"] },
            ", Private:",
            { "Fn::GetAtt": ["TEST0Instance", "PrivateIp"] },
            " )"
          ]
        ]
      }
    },
    "TEST1": {
      "Description": "test instance in VPC1",
      "Value": {
        "Fn::Join": [
          "",
          [
            { "Ref": "TEST1Instance" },
            " ( Public: ",
            { "Fn::GetAtt": ["TEST1Instance", "PublicIp"] },
            ", Private:",
            { "Fn::GetAtt": ["TEST1Instance", "PrivateIp"] },
            " )"
          ]
        ]
      }
    }
  },
  "Parameters": {
    "KeyName": {
      "AllowedPattern": "[\\x20-\\x7E]*",
      "ConstraintDescription": "can contain only ASCII characters.",
      "Description": "Name of an existing EC2 KeyPair to enable SSH access to the instances",
      "MaxLength": "255",
      "MinLength": "1",
      "Type": "String"
    },
    "SSHLocation": {
      "AllowedPattern": "(\\d{1,3})\\.(\\d{1,3})\\.(\\d{1,3})\\.(\\d{1,3})/(\\d{1,2})",
      "ConstraintDescription": "must be a valid IP CIDR range of the form x.x.x.x/x.",
      "Default": "0.0.0.0/0",
      "Description": " The IP address range that can be used to SSH to the EC2 instances",
      "MaxLength": "18",
      "MinLength": "9",
      "Type": "String"
    },
    "SWANInstanceType": {
      "AllowedValues": [
        "t1.micro",
        "t2.micro",
        "t2.small",
        "t2.medium",
        "m1.small",
        "m1.medium",
        "m1.large",
        "m1.xlarge",
        "m2.xlarge",
        "m2.2xlarge",
        "m2.4xlarge",
        "m3.medium",
        "m3.large",
        "m3.xlarge",
        "m3.2xlarge",
        "c1.medium",
        "c1.xlarge",
        "c3.large",
        "c3.xlarge",
        "c3.2xlarge",
        "c3.4xlarge",
        "c3.8xlarge",
        "cc1.4xlarge",
        "cc2.8xlarge",
        "cg1.4xlarge",
        "cr1.8xlarge",
        "g2.2xlarge",
        "hi1.4xlarge",
        "hs1.8xlarge",
        "i2.2xlarge",
        "i2.4xlarge",
        "i2.8xlarge",
        "i2.xlarge",
        "r3.large",
        "r3.xlarge",
        "r3.2xlarge",
        "r3.4xlarge",
        "r3.8xlarge"
      ],
      "ConstraintDescription": "must be a valid EC2 instance type.",
      "Default": "m1.small",
      "Description": "openswan instance type",
      "Type": "String"
    },
    "TESTInstanceType": {
      "AllowedValues": [
        "t1.micro",
        "t2.micro",
        "t2.small",
        "t2.medium",
        "m1.small",
        "m1.medium",
        "m1.large",
        "m1.xlarge",
        "m2.xlarge",
        "m2.2xlarge",
        "m2.4xlarge",
        "m3.medium",
        "m3.large",
        "m3.xlarge",
        "m3.2xlarge",
        "c1.medium",
        "c1.xlarge",
        "c3.large",
        "c3.xlarge",
        "c3.2xlarge",
        "c3.4xlarge",
        "c3.8xlarge",
        "cc1.4xlarge",
        "cc2.8xlarge",
        "cg1.4xlarge",
        "cr1.8xlarge",
        "g2.2xlarge",
        "hi1.4xlarge",
        "hs1.8xlarge",
        "i2.2xlarge",
        "i2.4xlarge",
        "i2.8xlarge",
        "i2.xlarge",
        "r3.large",
        "r3.xlarge",
        "r3.2xlarge",
        "r3.4xlarge",
        "r3.8xlarge"
      ],
      "ConstraintDescription": "must be a valid EC2 instance type.",
      "Default": "m1.small",
      "Description": "openswan instance type",
      "Type": "String"
    },
    "VPC0CIDR": {
      "AllowedPattern": "(\\d{1,3})\\.(\\d{1,3})\\.(\\d{1,3})\\.(\\d{1,3})/(\\d{1,2})",
      "ConstraintDescription": "must be a valid IP address",
      "Default": "10.0.0.0/16",
      "Description": "VPC0 CIDR Block",
      "MaxLength": "18",
      "MinLength": "9",
      "Type": "String"
    },
    "VPC0PracSubnetCIDR": {
      "AllowedPattern": "(\\d{1,3})\\.(\\d{1,3})\\.(\\d{1,3})\\.(\\d{1,3})/(\\d{1,2})",
      "ConstraintDescription": "must be a valid IP address",
      "Default": "10.0.1.0/24",
      "Description": "Public Subnet 1 CIDR Block",
      "MaxLength": "18",
      "MinLength": "9",
      "Type": "String"
    },
    "VPC1CIDR": {
      "AllowedPattern": "(\\d{1,3})\\.(\\d{1,3})\\.(\\d{1,3})\\.(\\d{1,3})/(\\d{1,2})",
      "ConstraintDescription": "must be a valid IP address",
      "Default": "20.0.0.0/16",
      "Description": "VPC1 CIDR Block",
      "MaxLength": "18",
      "MinLength": "9",
      "Type": "String"
    },
    "VPC1PracSubnetCIDR": {
      "AllowedPattern": "(\\d{1,3})\\.(\\d{1,3})\\.(\\d{1,3})\\.(\\d{1,3})/(\\d{1,2})",
      "ConstraintDescription": "must be a valid IP address",
      "Default": "20.0.1.0/24",
      "Description": "Public Subnet 1 CIDR Block",
      "MaxLength": "18",
      "MinLength": "9",
      "Type": "String"
    }
  },
  "Resources": {
    "IGW0": {
      "Properties": { "Tags": [{ "Key": "Name", "Value": "CF SME Prac IGW0" }] },
      "Type": "AWS::EC2::InternetGateway"
    },
    "IGW1": {
      "Properties": { "Tags": [{ "Key": "Name", "Value": "CF SME Prac IGW1" }] },
      "Type": "AWS::EC2::InternetGateway"
    },
    "NetAttach0": {
      "Properties": { "InternetGatewayId": { "Ref": "IGW0" }, "VpcId": { "Ref": "VPC0" } },
      "Type": "AWS::EC2::VPCGatewayAttachment"
    },
    "NetAttach1": {
      "Properties": { "InternetGatewayId": { "Ref": "IGW1" }, "VpcId": { "Ref": "VPC1" } },
      "Type": "AWS::EC2::VPCGatewayAttachment"
    },
    "PublicRoute0": {
      "DependsOn": "NetAttach0",
      "Properties": {
        "DestinationCidrBlock": "0.0.0.0/0",
        "GatewayId": { "Ref": "IGW0" },
        "RouteTableId": { "Ref": "PublicRouteTable0" }
      },
      "Type": "AWS::EC2::Route"
    },
    "PublicRoute1": {
      "DependsOn": "NetAttach1",
      "Properties": {
        "DestinationCidrBlock": "0.0.0.0/0",
        "GatewayId": { "Ref": "IGW1" },
        "RouteTableId": { "Ref": "PublicRouteTable1" }
      },
      "Type": "AWS::EC2::Route"
    },
    "PublicRouteTable0": {
      "Properties": {
        "Tags": [{ "Key": "Name", "Value": "CF SME Prac Public Internet via IGW0" }],
        "VpcId": { "Ref": "VPC0" }
      },
      "Type": "AWS::EC2::RouteTable"
    },
    "PublicRouteTable1": {
      "Properties": {
        "Tags": [{ "Key": "Name", "Value": "CF SME Prac Public Internet via IGW1" }],
        "VpcId": { "Ref": "VPC1" }
      },
      "Type": "AWS::EC2::RouteTable"
    },
    "SWAN0EIP": { "DependsOn": "NetAttach0", "Properties": { "Domain": "vpc" }, "Type": "AWS::EC2::EIP" },
    "SWAN0EIPASSOC": {
      "Properties": {
        "AllocationId": { "Fn::GetAtt": ["SWAN0EIP", "AllocationId"] },
        "InstanceId": { "Ref": "SWAN0Instance" }
      },
      "Type": "AWS::EC2::EIPAssociation"
    },
    "SWAN0Instance": {
      "Properties": {
        "ImageId": {
          "Fn::FindInMap": [
            "AWSRegionArch2AMI",
            { "Ref": "AWS::Region" },
            { "Fn::FindInMap": ["AWSInstanceType2Arch", { "Ref": "SWANInstanceType" }, "Arch"] }
          ]
        },
        "InstanceType": { "Ref": "SWANInstanceType" },
        "KeyName": { "Ref": "KeyName" },
        "SecurityGroupIds": [{ "Ref": "SWAN0SecurityGroup" }],
        "SourceDestCheck": "false",
        "SubnetId": { "Ref": "VPC0PracSubnet" },
        "Tags": [{ "Key": "Name", "Value": "SWAN #0" }],
        "UserData": {
          "Fn::Base64": {
            "Fn::Join": [
              "\n",
              [
                "#!/usr/bin/env bash",
                "yum install -y openswan lsof",
                "/sbin/iptables -t nat -A POSTROUTING -o eth0 -s 0.0.0.0/0 -j MASQUERADE",
                "/sbin/iptables-save > /etc/sysconfig/iptables",
                "for vpn in /proc/sys/net/ipv4/conf/*",
                "do",
                "   echo 0 > $vpn/accept_redirects",
                "   echo 0 > $vpn/send_redirects",
                "done",
                "echo 1 >  /proc/sys/net/ipv4/ip_forward",
                "mkdir -p /etc/sysctl.d/",
                "cat <<EOF > /etc/sysctl.d/nat.conf",
                "net.ipv4.ip_forward = 1",
                "net.ipv4.conf.eth0.send_redirects = 0",
                "net.ipv4.conf.eth0.accept_redirects = 0",
                "EOF",
                "cat <<EOF > /etc/ipsec.d/sme_prac.secrets",
                "%any %any : PSK \"CloudformationSMEPracSharedKey\"",
                "EOF",
                "cp /etc/ipsec.conf /tmp/ipsec.conf.bkup",
                "cat <<EOF > /etc/ipsec.conf",
                "version 2.0",
                "config setup",
                "        protostack=netkey",
                "        nat_traversal=yes",
                {
                  "Fn::Join": [
                    "",
                    [
                      "        virtual_private=%v4:10.0.0.0/8,%v4:192.168.0.0/16,%v4:172.16.0.0/12,%v4:!",
                      { "Ref": "VPC0CIDR" }
                    ]
                  ]
                },
                "        oe=off",
                "include /etc/ipsec.d/*.conf",
                "EOF",
                "cat <<EOF > /etc/ipsec.d/sme_prac.conf",
                "conn sme_prac",
                "       authby=secret",
                "       auto=start",
                "       forceencaps=yes",
                "       left=%defaultroute",
                { "Fn::Join": ["", ["       leftid=", { "Ref": "SWAN0EIP" }]] },
                { "Fn::Join": ["", ["       leftsubnet=", { "Ref": "VPC0CIDR" }]] },
                { "Fn::Join": ["", ["       right=", { "Ref": "SWAN1EIP" }]] },
                { "Fn::Join": ["", ["       rightsubnet=", { "Ref": "VPC1CIDR" }]] },
                "EOF",
                { "Fn::Join": ["", ["ip r add ", { "Ref": "VPC1CIDR" }, " dev eth0"]] },
                "chkconfig ipsec on && service ipsec start",
                {
                  "Fn::Join": ["", ["/opt/aws/bin/cfn-signal -e 0 -r \"setup complete\" '", { "Ref": "SWAN0WaitHandle" }, "'"]]
                }
              ]
            ]
          }
        }
      },
      "Type": "AWS::EC2::Instance"
    },
    "SWAN0PeerAccess": {
      "Properties": {
        "CidrIp": { "Fn::Join": ["", [{ "Ref": "SWAN1EIP" }, "/32"]] },
        "FromPort": "1",
        "GroupId": { "Ref": "SWAN0SecurityGroup" },
        "IpProtocol": "-1",
        "ToPort": "65535"
      },
      "Type": "AWS::EC2::SecurityGroupIngress"
    },
    "SWAN0SecurityGroup": {
      "Properties": {
        "GroupDescription": "Enable HTTP access via port 80 locked down to load balancer only and SSH access",
        "SecurityGroupIngress": [
          { "CidrIp": { "Ref": "VPC0CIDR" }, "FromPort": "0", "IpProtocol": "-1", "ToPort": "65535" },
          { "CidrIp": { "Ref": "SSHLocation" }, "FromPort": "22", "IpProtocol": "tcp", "ToPort": "22" }
        ],
        "VpcId": { "Ref": "VPC0" }
      },
      "Type": "AWS::EC2::SecurityGroup"
    },
    "SWAN0WaitCondition": {
      "DependsOn": "SWAN0Instance",
      "Properties": { "Handle": { "Ref": "SWAN0WaitHandle" }, "Timeout": "900" },
      "Type": "AWS::CloudFormation::WaitCondition"
    },
    "SWAN0WaitHandle": { "Type": "AWS::CloudFormation::WaitConditionHandle" },
    "SWAN1EIP": { "DependsOn": "NetAttach1", "Properties": { "Domain": "vpc" }, "Type": "AWS::EC2::EIP" },
    "SWAN1EIPASSOC": {
      "Properties": {
        "AllocationId": { "Fn::GetAtt": ["SWAN1EIP", "AllocationId"] },
        "InstanceId": { "Ref": "SWAN1Instance" }
      },
      "Type": "AWS::EC2::EIPAssociation"
    },
    "SWAN1Instance": {
      "Properties": {
        "ImageId": {
          "Fn::FindInMap": [
            "AWSRegionArch2AMI",
            { "Ref": "AWS::Region" },
            { "Fn::FindInMap": ["AWSInstanceType2Arch", { "Ref": "SWANInstanceType" }, "Arch"] }
          ]
        },
        "InstanceType": { "Ref": "SWANInstanceType" },
        "KeyName": { "Ref": "KeyName" },
        "SecurityGroupIds": [{ "Ref": "SWAN1SecurityGroup" }],
        "SourceDestCheck": "false",
        "SubnetId": { "Ref": "VPC1PracSubnet" },
        "Tags": [{ "Key": "Name", "Value": "SWAN #1" }],
        "UserData": {
          "Fn::Base64": {
            "Fn::Join": [
              "\n",
              [
                "#!/usr/bin/env bash",
                "yum install -y openswan lsof",
                "/sbin/iptables -t nat -A POSTROUTING -o eth0 -s 0.0.0.0/0 -j MASQUERADE",
                "/sbin/iptables-save > /etc/sysconfig/iptables",
                "for vpn in /proc/sys/net/ipv4/conf/*",
                "do",
                "   echo 0 > $vpn/accept_redirects",
                "   echo 0 > $vpn/send_redirects",
                "done",
                "echo 1 >  /proc/sys/net/ipv4/ip_forward",
                "mkdir -p /etc/sysctl.d/",
                "cat <<EOF > /etc/sysctl.d/nat.conf",
                "net.ipv4.ip_forward = 1",
                "net.ipv4.conf.eth0.send_redirects = 0",
                "net.ipv4.conf.eth0.accept_redirects = 0",
                "EOF",
                "cat <<EOF > /etc/ipsec.d/sme_prac.secrets",
                "%any %any : PSK \"CloudformationSMEPracSharedKey\"",
                "EOF",
                "cp /etc/ipsec.conf /tmp/ipsec.conf.bkup",
                "cat <<EOF > /etc/ipsec.conf",
                "version 2.0",
                "config setup",
                "        protostack=netkey",
                "        nat_traversal=yes",
                {
                  "Fn::Join": [
                    "",
                    [
                      "        virtual_private=%v4:10.0.0.0/8,%v4:192.168.0.0/16,%v4:172.16.0.0/12,%v4:!",
                      { "Ref": "VPC1CIDR" }
                    ]
                  ]
                },
                "        oe=off",
                "include /etc/ipsec.d/*.conf",
                "EOF",
                "cat <<EOF > /etc/ipsec.d/sme_prac.conf",
                "conn sme_prac",
                "       authby=secret",
                "       auto=start",
                "       forceencaps=yes",
                "       left=%defaultroute",
                { "Fn::Join": ["", ["       leftid=", { "Ref": "SWAN1EIP" }]] },
                { "Fn::Join": ["", ["       leftsubnet=", { "Ref": "VPC1CIDR" }]] },
                { "Fn::Join": ["", ["       right=", { "Ref": "SWAN0EIP" }]] },
                { "Fn::Join": ["", ["       rightsubnet=", { "Ref": "VPC0CIDR" }]] },
                "EOF",
                { "Fn::Join": ["", ["ip r add ", { "Ref": "VPC0CIDR" }, " dev eth0"]] },
                "chkconfig ipsec on && service ipsec start",
                {
                  "Fn::Join": ["", ["/opt/aws/bin/cfn-signal -e 0 -r \"setup complete\" '", { "Ref": "SWAN1WaitHandle" }, "'"]]
                }
              ]
            ]
          }
        }
      },
      "Type": "AWS::EC2::Instance"
    },
    "SWAN1PeerAccess": {
      "Properties": {
        "CidrIp": { "Fn::Join": ["", [{ "Ref": "SWAN1EIP" }, "/32"]] },
        "FromPort": "1",
        "GroupId": { "Ref": "SWAN1SecurityGroup" },
        "IpProtocol": "-1",
        "ToPort": "65535"
      },
      "Type": "AWS::EC2::SecurityGroupIngress"
    },
    "SWAN1SecurityGroup": {
      "Properties": {
        "GroupDescription": "Enable HTTP access via port 80 locked down to load balancer only and SSH access",
        "SecurityGroupIngress": [
          { "CidrIp": { "Ref": "VPC1CIDR" }, "FromPort": "0", "IpProtocol": "-1", "ToPort": "65535" },
          { "CidrIp": { "Ref": "SSHLocation" }, "FromPort": "22", "IpProtocol": "tcp", "ToPort": "22" }
        ],
        "VpcId": { "Ref": "VPC1" }
      },
      "Type": "AWS::EC2::SecurityGroup"
    },
    "SWAN1WaitCondition": {
      "DependsOn": "SWAN1Instance",
      "Properties": { "Handle": { "Ref": "SWAN1WaitHandle" }, "Timeout": "900" },
      "Type": "AWS::CloudFormation::WaitCondition"
    },
    "SWAN1WaitHandle": { "Type": "AWS::CloudFormation::WaitConditionHandle" },
    "TEST0Instance": {
      "Properties": {
        "ImageId": {
          "Fn::FindInMap": [
            "AWSRegionArch2AMI",
            { "Ref": "AWS::Region" },
            { "Fn::FindInMap": ["AWSInstanceType2Arch", { "Ref": "TESTInstanceType" }, "Arch"] }
          ]
        },
        "InstanceType": { "Ref": "TESTInstanceType" },
        "KeyName": { "Ref": "KeyName" },
        "NetworkInterfaces": [
          {
            "AssociatePublicIpAddress": "true",
            "DeviceIndex": "0",
            "GroupSet": [{ "Ref": "TEST0SecurityGroup" }],
            "SubnetId": { "Ref": "VPC0PracSubnet" }
          }
        ],
        "Tags": [{ "Key": "Name", "Value": "Test #0" }],
        "UserData": {
          "Fn::Base64": {
            "Fn::Join": [
              "\n",
              [
                "#!/bin/bash -v",
                "yum update -y aws-cfn-bootstrap",
                {
                  "Fn::Join": ["", ["/opt/aws/bin/cfn-signal -e 0 -r \"setup complete\" '", { "Ref": "TEST0WaitHandle" }, "'"]]
                }
              ]
            ]
          }
        }
      },
      "Type": "AWS::EC2::Instance"
    },
    "TEST0PeerAccess": {
      "Properties": {
        "CidrIp": { "Fn::Join": ["", [{ "Fn::GetAtt": ["SWAN0Instance", "PrivateIp"] }, "/32"]] },
        "FromPort": "1",
        "GroupId": { "Ref": "TEST0SecurityGroup" },
        "IpProtocol": "-1",
        "ToPort": "65535"
      },
      "Type": "AWS::EC2::SecurityGroupIngress"
    },
    "TEST0SecurityGroup": {
      "Properties": {
        "GroupDescription": "MySQL TCP access for Web Security Group",
        "SecurityGroupIngress": [{ "CidrIp": { "Ref": "SSHLocation" }, "FromPort": "22", "IpProtocol": "tcp", "ToPort": "22" }],
        "VpcId": { "Ref": "VPC0" }
      },
      "Type": "AWS::EC2::SecurityGroup"
    },
    "TEST0WaitCondition": {
      "DependsOn": "TEST0Instance",
      "Properties": { "Handle": { "Ref": "TEST0WaitHandle" }, "Timeout": "600" },
      "Type": "AWS::CloudFormation::WaitCondition"
    },
    "TEST0WaitHandle": { "Type": "AWS::CloudFormation::WaitConditionHandle" },
    "TEST1Instance": {
      "Properties": {
        "ImageId": {
          "Fn::FindInMap": [
            "AWSRegionArch2AMI",
            { "Ref": "AWS::Region" },
            { "Fn::FindInMap": ["AWSInstanceType2Arch", { "Ref": "TESTInstanceType" }, "Arch"] }
          ]
        },
        "InstanceType": { "Ref": "TESTInstanceType" },
        "KeyName": { "Ref": "KeyName" },
        "NetworkInterfaces": [
          {
            "AssociatePublicIpAddress": "true",
            "DeviceIndex": "0",
            "GroupSet": [{ "Ref": "TEST1SecurityGroup" }],
            "SubnetId": { "Ref": "VPC1PracSubnet" }
          }
        ],
        "Tags": [{ "Key": "Name", "Value": "Test #1" }],
        "UserData": {
          "Fn::Base64": {
            "Fn::Join": [
              "\n",
              [
                "#!/bin/bash -v",
                "yum update -y aws-cfn-bootstrap",
                {
                  "Fn::Join": ["", ["/opt/aws/bin/cfn-signal -e 0 -r \"setup complete\" '", { "Ref": "TEST1WaitHandle" }, "'"]]
                }
              ]
            ]
          }
        }
      },
      "Type": "AWS::EC2::Instance"
    },
    "TEST1PeerAccess": {
      "Properties": {
        "CidrIp": { "Fn::Join": ["", [{ "Fn::GetAtt": ["SWAN1Instance", "PrivateIp"] }, "/32"]] },
        "FromPort": "1",
        "GroupId": { "Ref": "TEST1SecurityGroup" },
        "IpProtocol": "-1",
        "ToPort": "65535"
      },
      "Type": "AWS::EC2::SecurityGroupIngress"
    },
    "TEST1SecurityGroup": {
      "Properties": {
        "GroupDescription": "MySQL TCP access for Web Security Group",
        "SecurityGroupIngress": [{ "CidrIp": { "Ref": "SSHLocation" }, "FromPort": "22", "IpProtocol": "tcp", "ToPort": "22" }],
        "VpcId": { "Ref": "VPC1" }
      },
      "Type": "AWS::EC2::SecurityGroup"
    },
    "TEST1WaitCondition": {
      "DependsOn": "TEST1Instance",
      "Properties": { "Handle": { "Ref": "TEST1WaitHandle" }, "Timeout": "600" },
      "Type": "AWS::CloudFormation::WaitCondition"
    },
    "TEST1WaitHandle": { "Type": "AWS::CloudFormation::WaitConditionHandle" },
    "VPC0": {
      "Properties": { "CidrBlock": { "Ref": "VPC0CIDR" }, "Tags": [{ "Key": "Name", "Value": "CF SME Prac VPC0" }] },
      "Type": "AWS::EC2::VPC"
    },
    "VPC0PracSubnet": {
      "Properties": {
        "CidrBlock": { "Ref": "VPC0PracSubnetCIDR" },
        "Tags": [{ "Key": "Name", "Value": "VPC0 Prac Subnet" }],
        "VpcId": { "Ref": "VPC0" }
      },
      "Type": "AWS::EC2::Subnet"
    },
    "VPC0PracSubnetRTAssoc": {
      "Properties": { "RouteTableId": { "Ref": "PublicRouteTable0" }, "SubnetId": { "Ref": "VPC0PracSubnet" } },
      "Type": "AWS::EC2::SubnetRouteTableAssociation"
    },
    "VPC1": {
      "Properties": { "CidrBlock": { "Ref": "VPC1CIDR" }, "Tags": [{ "Key": "Name", "Value": "CF SME Prac VPC1" }] },
      "Type": "AWS::EC2::VPC"
    },
    "VPC1PracSubnet": {
      "Properties": {
        "CidrBlock": { "Ref": "VPC1PracSubnetCIDR" },
        "Tags": [{ "Key": "Name", "Value": "VPC1 Prac Subnet" }],
        "VpcId": { "Ref": "VPC1" }
      },
      "Type": "AWS::EC2::Subnet"
    },
    "VPC1PracSubnetRTAssoc": {
      "Properties": { "RouteTableId": { "Ref": "PublicRouteTable1" }, "SubnetId": { "Ref": "VPC1PracSubnet" } },
      "Type": "AWS::EC2::SubnetRouteTableAssociation"
    },
    "VPNRoute0": {
      "DependsOn": "NetAttach0",
      "Properties": {
        "DestinationCidrBlock": { "Ref": "VPC1CIDR" },
        "InstanceId": { "Ref": "SWAN0Instance" },
        "RouteTableId": { "Ref": "PublicRouteTable0" }
      },
      "Type": "AWS::EC2::Route"
    },
    "VPNRoute1": {
      "DependsOn": "NetAttach0",
      "Properties": {
        "DestinationCidrBlock": { "Ref": "VPC0CIDR" },
        "InstanceId": { "Ref": "SWAN1Instance" },
        "RouteTableId": { "Ref": "PublicRouteTable1" }
      },
      "Type": "AWS::EC2::Route"
    }
  }
}
